473686 901969 525
886708 963329 507
74116 994696 525
529322 924044 525
477218 235220 449
63307 379480 443
971544 912533 507
636661 275327 509
914632 804546 525
506234 118259 449
727828 567399 509
524229 460510 470
89741 739484 509
945290 932107 507
538105 324149 470
999562 806531 525
815605 489378 509
405994 539709 470
218782 529831 470
796183 122538 509
450026 391420 449
135685 245932 443
896204 812508 525
514962 313443 470
588218 619780 447
642891 488164 509
968326 958988 414
23129 49095 324
833161 365522 509
845669 826203 525
2948 272720 443
571301 258390 470
18553 488786 449
581703 826685 509
371130 95614 443
961568 741080 525
814115 280320 509
913223 135937 525
986227 336186 525
629054 986302 525
33219 684718 509
980815 351819 525
921607 429877 525
192135 116057 383
907040 835323 525
423654 748844 509
363138 614574 470
990417 153540 525
924444 707654 525
663765 258766 509
309107 271546 389
956224 644875 525
112476 285630 443
5027 897138 525
60147 461669 449
837483 250479 509
899694 616032 525
741841 679245 504
868358 834353 525
320157 560631 470
131813 781188 509
930157 816046 525
549653 348020 470
205732 983977 525
941499 734715 525
444322 325363 449
83704 113523 354
879080 980605 507
199434 860333 525
519578 315947 470
173606 994278 525
803711 400664 509
254095 258959 363
30329 355494 443
24931 549804 470
617569 589000 447
876290 82281 525
623165 991791 525
146977 632172 509
462850 688634 509
16163 578511 470
183797 479544 449
850191 903002 445
66240 466779 449
310054 994937 525
699337 268936 509
624837 845747 525
977046 496610 525
664708 761529 504
224142 196442 386
654706 158253 509
983580 702124 525
983219 687837 525
896621 331044 525
590482 565542 434
588664 943465 525
921019 66910 525
275754 709927 509
50573 125976 354
285659 812237 509
830975 342913 509
561789 426410 470
653806 568685 509
178201 628278 509
900427 994218 507
867493 806118 525
769531 510775 509
812277 805512 406
468712 231012 449
502963 617933 470
804198 399797 509
391788 251728 441
13148 442570 449
153504 171212 383
829557 176196 509
929548 533522 525
978554 804492 525
813451 535997 509
602954 492721 470
772758 187953 509
862915 142454 525
106901 448071 449
624387 699776 509
512297 930652 525
110445 641095 509
982953 870639 507
792239 135876 509
993357 587397 525
740375 498755 509
138363 262284 443
383722 753622 509
336976 912854 525
862379 59655 525
982731 6316 525
970117 488207 525
697132 983749 525
84210 855039 525
649065 328393 509
27524 486211 449
997662 537900 525
269231 324037 407
52028 899525 525
615484 777571 509
564556 120425 470
45417 752177 509
873662 444878 525
227056 451197 449
848102 96298 525
501560 311088 449
740951 393348 509
87829 462672 449
766457 639236 504
40315 426096 449
338549 463787 449
913306 330011 525
726354 939873 525
166734 310826 443
426064 252355 449
298773 457052 449
722994 366830 509
16253 687235 509
538796 927668 525
52679 817076 509
814233 605906 509
34532 65640 340
562458 119584 470
533668 243889 470
315822 38901 443
953409 197306 525
503247 647999 509
607997 921101 525
548677 667019 509
245515 183702 443
340618 40137 443
554599 580159 421
443094 770730 509
401214 263796 441
424862 744985 509
739680 57991 509
902020 357539 525
757215 274992 509
88376 707198 509
508491 909274 525
940044 17225 525
938486 613119 525
69270 871733 525
459525 415383 418
171318 766999 509
442627 938670 525
939235 726820 525
432870 662407 509
259089 546823 470
361399 389946 436
871134 571191 525
247918 512132 470
419155 198395 449
440128 252432 449
889342 351890 525
242333 704236 509
433028 327698 449
472485 845237 525
638694 969311 525
786455 644260 504
326832 91943 443
358280 322323 441
785712 296935 509
13510 347231 443
314943 771587 509
506145 618424 470
996902 467957 525
885944 384462 525
803328 923599 525
481654 98341 449
492667 749125 509
526853 140167 470
307078 30660 443
540189 472460 470
830088 574586 509
30080 826805 509
95529 673874 509
262081 98883 443
715098 507955 509
853397 540095 525
607494 29801 470
490858 135786 449
94753 170145 383
407657 198758 443
516712 215347 470
311748 813860 509
670108 367440 509
552629 93045 470
819690 755332 468
548232 491727 470
169163 977780 525
794 581907 470
634189 595812 509
429167 642478 509
261530 109786 443
589655 379920 470
656184 124650 509
374114 856450 525
301586 770982 509
771538 177535 509
969981 593220 525
114499 723982 509
926443 711455 525
450848 876574 525
963336 744750 525
922211 420599 525
126920 664466 509
562502 945932 525
495851 410003 449
912622 255863 525
824745 3588 509
620745 590509 447
651368 625310 509
449371 437862 400
950477 193252 525
652467 48082 509
162358 522025 470
939245 175977 525
841240 747338 525
638251 33025 509
973888 156872 525
844323 669029 525
61112 797699 509
857674 651622 525
313784 933189 525
850080 545269 525
8847 542536 470
112299 693809 509
889215 99568 525
613516 156375 470
764156 390112 509
792333 791016 344
23079 856282 525
285167 7009 443
132652 667525 509
572317 727946 509
527549 518826 439
535722 984575 525
