197625 95789 383
520167 300470 470
619113 345183 470
836411 64033 509
365954 710521 509
374840 338507 441
846093 666898 525
584175 807607 509
202909 175616 365
198249 296584 443
964081 79873 525
945559 504964 525
22699 782559 509
513064 523140 439
765822 270319 509
490016 310283 449
296645 506096 449
751085 499289 509
251155 587741 470
374235 303309 441
990777 533920 525
175549 737704 509
585696 44630 470
36845 421672 449
276633 417297 449
908516 96428 525
938398 441861 525
885340 866593 432
925083 614283 525
81614 511734 449
324671 405526 441
328797 414077 449
356968 295850 441
979665 17954 525
173917 656594 509
589492 808539 509
78338 633378 509
460455 92755 449
214187 842408 525
419257 890459 525
38031 65864 340
373786 93081 443
771897 16931 509
230673 515443 470
434979 857590 525
962794 862805 507
975907 337308 525
836698 786536 468
890559 313957 525
105923 383958 443
660530 979354 525
401818 987060 525
811119 922416 525
790578 688999 504
761164 133039 509
560956 101485 470
744529 891750 525
113724 385719 443
552199 713576 509
463166 790186 509
887909 799116 525
85906 395403 443
174969 147749 383
1844 415944 449
924311 49901 525
886628 79123 525
350673 945133 525
290760 337330 384
303322 773756 509
903350 144084 525
725294 284219 509
377400 448978 449
554416 539940 452
418445 400714 449
505593 984952 525
531034 436838 470
585718 151939 470
889722 437576 525
55241 346289 443
704100 640174 442
170646 114711 383
702737 797403 504
872624 280266 525
876394 844786 432
698811 215473 509
791386 134272 509
87245 383252 443
620113 454200 470
900568 77023 525
462215 509729 426
226423 308768 443
110881 558713 470
203862 116894 383
623549 474765 470
658740 220854 509
34296 725570 509
790436 46076 509
107530 429105 449
823900 653699 504
39744 77234 351
767685 679323 504
456028 362318 449
384205 934491 525
97320 581278 470
321850 426458 449
256412 720345 509
843717 217447 525
500422 163230 449
81792 201476 383
674248 98863 509
600177 276264 470
203754 820995 509
595112 161482 470
55126 44721 340
322715 995595 525
488572 841057 525
549937 950521 525
878330 482426 525
68505 634839 509
141035 236489 443
984720 940432 458
515015 412784 470
74070 371441 443
890280 455659 525
914451 739347 525
341430 290761 384
340605 94420 443
92023 128482 354
816845 894807 525
593325 596903 372
299748 618434 470
298826 832761 509
843057 226 525
829167 864187 525
703707 677617 442
24588 652582 509
578629 874647 525
755000 571825 509
939498 38675 525
421056 619309 470
663131 540511 509
396786 89326 443
660974 682087 442
293094 18205 443
171525 663815 509
787994 142958 509
461946 754652 509
498184 405204 449
797905 265076 509
468924 355910 449
241699 483007 449
972414 910674 507
798388 682358 504
796979 965266 525
263504 327094 407
849321 141259 525
328929 579193 470
52716 713486 509
46363 364361 443
638935 182564 509
981295 157053 525
17890 251646 443
843403 616950 525
839301 108881 525
973792 175567 525
559983 499165 470
736985 357748 509
228930 62992 386
799340 146089 509
500358 282410 449
358018 28746 443
913357 609521 525
45269 613925 470
504187 650294 509
929536 135555 525
252074 268164 407
765956 395548 509
896724 792843 525
201176 867270 525
533067 984090 525
714855 861158 525
645482 293187 509
603494 849755 525
222373 270073 443
263753 22101 443
130770 599903 470
665239 661038 442
956437 821898 525
523607 767038 509
797466 468453 509
867012 937743 476
792682 174281 509
30278 390420 443
598330 482342 470
940278 343756 525
63530 489555 449
188573 760158 509
437109 726732 509
714403 577329 509
857575 713353 525
657054 170513 509
367926 434970 449
873936 556271 525
64039 250734 443
809399 916219 525
367995 687046 509
841893 955599 507
5010 782906 509
218046 388608 443
274104 143625 443
590244 488203 470
370658 930959 525
783360 356666 509
996290 344261 525
558450 660974 509
510917 908104 525
824668 524105 509
623297 796941 509
146791 18363 375
948960 975039 458
870047 223871 525
678545 269872 509
500928 342989 449
105986 721840 509
899832 219606 525
71073 662436 509
166547 582189 470
591276 39785 470
411208 103703 449
876801 1755 525
104529 610713 470
530713 863953 525
9787 837799 525
682440 97508 509
544427 178106 470
11714 518052 470
25381 140219 354
145603 807674 509
790878 761636 468
828914 117954 509
121027 202923 383
142514 505150 449
914541 706841 525
457640 156855 449
433978 836198 509
410382 165869 449
800616 887460 525
694054 755071 504
921258 766941 525
675562 886293 525
